…
tara_poems<-pdf_text("../../static/data/Poems_TK.pdf")
 table_tara_poem <- data.frame(text = unlist(strsplit(tara_poems, "\n"))) %>% 
  mutate(poem = "all_my_poems", line = row_number(), text = gsub("\n", "", text)) 

#head(table_tara_poem)
tara_poem_text<- table_tara_poem %>% 
    as_tibble() %>% 
   unnest_tokens(word, text) %>% 
   anti_join(stop_words)

## Joining, by = "word"

tara_poem_text

## # A tibble: 347 × 3
##            poem  line      word
##           <chr> <int>     <chr>
## 1  all_my_poems   100    scythe
## 2  all_my_poems   100    bullet
## 3  all_my_poems   100    exempt
## 4  all_my_poems    99    subdue
## 5  all_my_poems    99     cruel
## 6  all_my_poems    98  ornament
## 7  all_my_poems    97 someplace
## 8  all_my_poems    96 fortunate
## 9  all_my_poems    95    cocoon
## 10 all_my_poems    95   guarded
## # ... with 337 more rows
…
